[
    {"lien": "https://www.twitter.com", "name": "Twitter Home"},
    {"lien": "https://www.twitter.com/c4software", "name": "Valentin Brosseau"},
    {"lien": "https://www.reddit.com/korben", "name": "Korben"}
]